%!PS-Adobe-2.0 EPSF-2.0
%%Creator: OKS Library, <Igor.Soloviev@cern.ch>, CERN
%%Title: unknown
%%BoundingBox: 20 314 822 534
%%Pages: 1
%%DocumentFonts: Helvetica-Narrow Times-Roman Helvetica
%%EndComments

% set image font
/Helvetica-Narrow findfont
9.86 scalefont
setfont

% draw in landscape mode
90 rotate  0 -595 translate

gsave
0.82 setlinewidth
0.00 0.00 0.00 setrgbcolor
 234.47 477.30 moveto 388.95 477.30 lineto stroke
 535.22 345.00 moveto 732.43 345.00 lineto stroke
 732.43 345.00 moveto 732.43 387.73 lineto stroke
 536.86 483.88 moveto 731.61 483.88 lineto stroke
 731.61 483.88 moveto 731.61 446.08 lineto stroke
 416.89 455.94 moveto 416.89 400.06 lineto stroke
 508.92 455.94 moveto 508.92 400.06 lineto stroke
grestore
gsave
1.64 setlinewidth
0.00 0.00 0.00 setrgbcolor
 389.77 498.67 moveto 536.04 498.67 lineto stroke
 536.04 498.67 moveto 536.04 456.76 lineto stroke
 389.77 498.67 moveto 389.77 456.76 lineto stroke
 389.77 456.76 moveto 536.04 456.76 lineto stroke
 389.77 479.77 moveto 536.04 479.77 lineto stroke
 389.77 461.69 moveto 536.04 461.69 lineto stroke
 393.06 399.24 moveto 534.40 399.24 lineto stroke
 534.40 399.24 moveto 534.40 327.75 lineto stroke
 393.06 399.24 moveto 393.06 327.75 lineto stroke
 393.06 327.75 moveto 534.40 327.75 lineto stroke
 393.06 380.34 moveto 534.40 380.34 lineto stroke
 393.06 332.68 moveto 534.40 332.68 lineto stroke
 646.15 445.25 moveto 817.07 445.25 lineto stroke
 817.07 445.25 moveto 817.07 388.56 lineto stroke
 646.15 445.25 moveto 646.15 388.56 lineto stroke
 646.15 388.56 moveto 817.07 388.56 lineto stroke
 646.15 426.35 moveto 817.07 426.35 lineto stroke
 646.15 393.49 moveto 817.07 393.49 lineto stroke
 33.97 522.50 moveto 233.65 522.50 lineto stroke
 233.65 522.50 moveto 233.65 317.89 lineto stroke
 33.97 522.50 moveto 33.97 317.89 lineto stroke
 33.97 317.89 moveto 233.65 317.89 lineto stroke
 33.97 503.60 moveto 233.65 503.60 lineto stroke
 33.97 381.98 moveto 233.65 381.98 lineto stroke
grestore
 249.26 483.05 moveto (ResourcesInfoConfiguration) show
 369.23 465.80 moveto (0..1) show
 608.35 350.76 moveto (SubFolders) show
 736.54 376.23 moveto (0..N) show
 573.02 489.63 moveto (DefaultDetectorSubFolders) show
 710.25 451.83 moveto (0..N) show
 420.18 425.53 moveto (GlobalFolder) show
 397.17 405.81 moveto (1..1) show
 512.21 425.53 moveto (DetectorFolders) show
 487.56 405.81 moveto (1..N) show
 416.07 485.52 moveto (ResourcesInfoConfig) show
 393.06 467.44 moveto (ArchiveInCOOL: bool = 'false') show
 397.99 386.09 moveto (ResourcesInfoDetectorConfig) show
 396.35 368.01 moveto (FolderName: string) show
 396.35 353.22 moveto (SubDetectorMinID: u8) show
 396.35 338.43 moveto (SubDetectorMaxID: u8) show
 651.08 432.11 moveto (ResourcesInfoDetectorFolderConfig) show
 649.44 414.03 moveto (FolderName: string) show
 649.44 399.24 moveto (BaseClasses: list of string) show
 116.14 509.35 moveto (Partition) show
 37.26 491.27 moveto (RepositoryRoot: string) show
 37.26 476.48 moveto (IPCRef: string = '$\(TDAQ_IPC_INIT_REF\)') show
 37.26 461.69 moveto (DBPath: string = '$\(TDAQ_DB_PATH\)') show
 37.26 446.90 moveto (DBName: string = '$\(TDAQ_DB_DATA\)') show
 37.26 432.11 moveto (DBTechnology: enum = 'rdbconfig') show
 37.26 417.32 moveto (LogRoot: string = '/tmp') show
 37.26 402.52 moveto (WorkingDirectory: string = '/tmp') show
 37.26 387.73 moveto (RunTypes: list of string) show
 37.26 368.83 moveto (get_all_applications) show
 37.26 354.04 moveto (set_disabled) show
 37.26 339.25 moveto (set_enabled) show
 37.26 324.46 moveto (get_segment) show

% set header font
/Times-Roman findfont
14 scalefont
setfont

 20.00 569.00 moveto (Resources Info View) show
 20.00 548.00 moveto (Date: 2014-Jan-17 14:18:38) show

% set footer font
/Helvetica findfont
12 scalefont
setfont

 20.00 290.00 moveto (Database files:) show
 20.00 269.00 moveto (- 'daq/schema/core.schema.xml') show
showpage
